First Name,Last Name,Street Number,City,Province,Country,Postal Code,Phone Number,Email Address
Jyothi Jyothi Jyothi Jyothi Jyothi Jyothi Jyothi Jyothi Jyothi Jyothi ,Chillal,1322,Iqaluit,Manitoba,canada,5YN OHG,000-175-3506,Jyothi.Chillal@MailNational.org
Rodolfo,Taneja,7870,Halifax,Quebec,canada,JSI 136,218-264-3515,Rodolfo.Taneja@MailBoutique.tech
Meghana,Arantes Arantes Arantes Arantes Arantes Arantes Arantes Arantes Arantes Arantes ,7892,Regina,Newfoundland and Labrador,canada,DLM C8A,309-972-4814,Meghana.Arantes@MailHand.tech
Yudhvir,Yin,2699,Halifax,Ontario,canada,66G PQD,647-389-4947,Yudhvir.Yin@CyberMail.ns
Olugbenro,Suryawanshi,2936,St. Johns St. Johns St. Johns St. Johns St. Johns St. Johns St. Johns ,Saskatchewan,canada,YCF KMX,491-796-4485,Olugbenro.Suryawanshi@MailTask.biz
Caner Adil,Oliver,3793,Fredericton,Ontario,canada,PPQ JAW,261-511-2121,Caner Adil.Oliver@MailSage.edu
Daniel,Singh,9853,Winnipeg,Manitoba,canada,D2R 94P,644-752-6780,Daniel.Singh@MailNational.org
Jinal,Oliver,8105,Quebec City,Nova Scotia,canada,QIH 1IO,535-333-3670,Jinal.Oliver@MailSage.edu
Yifan,Sethi,8134,Victoria,Ontario,canada,Y9R TLX,320-547-3271,Yifan.Sethi@MailChamber.com
Abhiraj,Bhagat,3329,Fredericton,Manitoba,canada,6KO GLV,096-839-5226,Abhiraj.Bhagat@FamilyMail.biz
Naghmeh,Hameed,9229,St. Johns,Northwest Territories Northwest Territories Northwest Territories ,canada,5WL TIX,578-935-1111,Naghmeh.Hameed@MailHand.tech
Dinesh Kumar,Devaraj,7693,Regina,Nova Scotia,canada,MZU 3SG,908-814-7873,Dinesh Kumar.Devaraj@MailHand.tech
Florisha,Yin,4096,Halifax,Quebec,canada,9DC T8U,211-822-9868,Florisha.Yin@FamilyMail.biz
Lourdes,Taneja,6006,Charlottetown,Northwest Territories,canada,92O KUN,880-796-7479,Lourdes.Taneja@MailDash.org
Jyothi,Salvi,4528,Yellowknife,Nova Scotia,canada,GS5 8ZT,230-512-1216,Jyothi.Salvi@SaleMail.org
Ameer,Govindaraj,9228,Yellowknife,Prince Edward Island,canada,JKE GCD,350-796-5846,Ameer.Govindaraj@MailNational.org
Daune,Selere,3703,Regina,Ontario,canada,SPM Q4U,384-456-2585,Daune.Selere@MailMatic.ca
Daniel,Maruf,2695,Toronto,Nova Scotia,canada,JQZ JJO,206-987-7686,Daniel.Maruf@MailDash.org
Rodolfo,Garcia Barrantes,7911,Halifax,Prince Edward Island,canada,D7V 32F,837-201-1975,Rodolfo.Garcia Barrantes@MailMoney.biz
Karthik,Irfanoglu,9845,Yellowknife,Quebec,canada,3R4 FZ4,922-207-3764,Karthik.Irfanoglu@MailDaily.biz
